%YAML 1.1
%TAG !u! tag:unity3d.com,2011:
--- !u!1045 &1
EditorBuildSettings:
  m_ObjectHideFlags: 0
  serializedVersion: 2
  m_Scenes:
  - enabled: 1
    path: Assets/Scenes/Main.unity
    guid: 9fc0d4010bbf28b4594072e72b8655ab
  - enabled: 0
    path: Assets/Scenes/Empty.unity
    guid: 3d8458fcafcc15d469a1a843e3fb30d2
  - enabled: 1
    path: Assets/Scenes/Debug.unity
    guid: 082070c1c7b99e2438b70953213b2183
  - enabled: 1
    path: Assets/Scenes/Graph.unity
    guid: aa2cd4c6d22db594db78f1a1c9cbd8a6
  m_configObjects: {}
